{
    "project_name": "Project Name",
    "repo_name": "{{ cookiecutter.project_name.lower().replace(' ', '_') }}",
    "author_name": "Your name (or your organization/company/team)",
    "author_email": "Your email address (or your organization/company/team)",
    "description": "A short description of the project.",
    "open_source_license": ["MIT", "BSD-3-Clause", "No license file"]
}
